102,103,2002,1,0,0:0:0:0:
386,98,2859,1,0,0:0:0:0:
411,303,3716,1,0,0:0:0:0:
129,321,4573,1,0,0:0:0:0:
122,183,9288,1,0,0:0:0:0:
376,210,10145,1,0,0:0:0:0:
260,73,11002,1,0,0:0:0:0:
232,294,11859,1,0,0:0:0:0:
89,194,15716,1,0,0:0:0:0:
414,196,16573,1,0,0:0:0:0:
187,294,17216,1,0,0:0:0:0:
264,56,17430,1,0,0:0:0:0:
76,229,17859,1,0,0:0:0:0:
398,133,18288,1,0,0:0:0:0:
262,323,19145,5,0,0:0:0:0:
201,7,19359,1,0,0:0:0:0:
142,288,19573,1,0,0:0:0:0:
279,35,19788,1,0,0:0:0:0:
317,318,20002,1,0,0:0:0:0:
385,43,20216,1,0,0:0:0:0:
477,264,20430,1,0,0:0:0:0:
171,195,20645,1,0,0:0:0:0:
476,130,20859,1,0,0:0:0:0:
198,299,21073,1,0,0:0:0:0:
296,26,21288,1,0,0:0:0:0:
401,299,21502,1,0,0:0:0:0:
156,100,21716,1,0,0:0:0:0:
260,290,22145,1,0,0:0:0:0:
248,179,22573,5,0,0:0:0:0:
77,73,23002,1,0,0:0:0:0:
156,272,23216,1,0,0:0:0:0:
405,198,23859,1,0,0:0:0:0:
206,77,24073,1,0,0:0:0:0:
375,68,24716,5,0,0:0:0:0:
282,295,24930,1,0,0:0:0:0:
142,182,25573,1,0,0:0:0:0:
399,193,25788,1,0,0:0:0:0:
290,59,26002,1,0,0:0:0:0:
331,333,26430,5,0,0:0:0:0:
435,55,26645,1,0,0:0:0:0:
123,229,26859,1,0,0:0:0:0:
473,182,27073,1,0,0:0:0:0:
186,297,27288,1,0,0:0:0:0:
264,36,27502,1,0,0:0:0:0:
409,317,27716,1,0,0:0:0:0:
185,101,27930,1,0,0:0:0:0:
257,352,28145,1,0,0:0:0:0:
376,100,28359,1,0,0:0:0:0:
94,276,28573,1,0,0:0:0:0:
414,295,28788,1,0,0:0:0:0:
245,37,29002,1,0,0:0:0:0:
198,289,29216,1,0,0:0:0:0:
426,170,29430,1,0,0:0:0:0:
352,193,29859,1,0,0:0:0:0:
310,131,30288,1,0,0:0:0:0:
384,127,30716,1,0,0:0:0:0:
416,253,31145,1,0,0:0:0:0:
321,326,31573,1,0,0:0:0:0:
379,180,32002,5,0,0:0:0:0:
256,64,32216,1,0,0:0:0:0:
134,173,32430,1,0,0:0:0:0:
257,287,32645,1,0,0:0:0:0:
413,200,32859,1,0,0:0:0:0:
316,262,33288,1,0,0:0:0:0:
282,143,33716,1,0,0:0:0:0:
200,57,34145,1,0,0:0:0:0:
98,131,34573,1,0,0:0:0:0:
121,252,35002,1,0,0:0:0:0:
237,233,35430,1,0,0:0:0:0:
259,101,35859,1,0,0:0:0:0:
432,184,36288,5,0,0:0:0:0:
80,314,36716,1,0,0:0:0:0:
284,50,37145,1,0,0:0:0:0:
282,322,37573,1,0,0:0:0:0:
128,90,38002,5,0,0:0:0:0:
442,137,38430,1,0,0:0:0:0:
91,235,38859,1,0,0:0:0:0:
434,276,39288,1,0,0:0:0:0:
295,50,39716,5,0,0:0:0:0:
220,316,39930,1,0,0:0:0:0:
202,44,40145,1,0,0:0:0:0:
128,308,40359,1,0,0:0:0:0:
113,44,40573,1,0,0:0:0:0:
15,286,40788,1,0,0:0:0:0:
324,183,41002,1,0,0:0:0:0:
4,123,41216,1,0,0:0:0:0:
275,10,41430,1,0,0:0:0:0:
120,303,41645,1,0,0:0:0:0:
409,209,41859,1,0,0:0:0:0:
153,125,42073,1,0,0:0:0:0:
281,332,42288,1,0,0:0:0:0:
189,39,42716,1,0,0:0:0:0:
425,196,43145,1,0,0:0:0:0:
72,190,44002,1,0,0:0:0:0:
365,236,44216,1,0,0:0:0:0:
150,62,44430,1,0,0:0:0:0:
274,330,44645,1,0,0:0:0:0:
69,279,44859,1,0,0:0:0:0:
325,246,45502,1,0,0:0:0:0:
325,246,45609,1,0,0:0:0:0:
325,246,45716,1,0,0:0:0:0:
117,70,45930,1,0,0:0:0:0:
449,123,46145,1,0,0:0:0:0:
183,297,46359,1,0,0:0:0:0:
285,44,46573,5,0,0:0:0:0:
359,316,46788,1,0,0:0:0:0:
290,59,47002,1,0,0:0:0:0:
237,302,47216,1,0,0:0:0:0:
186,73,47430,1,0,0:0:0:0:
145,288,47645,1,0,0:0:0:0:
117,80,47859,1,0,0:0:0:0:
294,265,48073,1,0,0:0:0:0:
437,179,48288,1,0,0:0:0:0:
123,149,48716,1,0,0:0:0:0:
372,280,49145,1,0,0:0:0:0:
282,37,49359,1,0,0:0:0:0:
196,335,49573,1,0,0:0:0:0:
413,132,49788,1,0,0:0:0:0:
115,208,50002,5,0,0:0:0:0:
348,276,50216,1,0,0:0:0:0:
85,89,50430,1,0,0:0:0:0:
337,41,50645,1,0,0:0:0:0:
184,316,50859,1,0,0:0:0:0:
409,151,51073,1,0,0:0:0:0:
68,190,51288,1,0,0:0:0:0:
361,288,51502,1,0,0:0:0:0:
242,44,51716,1,0,0:0:0:0:
229,320,52145,1,0,0:0:0:0:
374,100,52359,1,0,0:0:0:0:
83,192,52573,1,0,0:0:0:0:
412,261,52788,1,0,0:0:0:0:
258,50,53002,1,0,0:0:0:0:
212,325,53216,1,0,0:0:0:0:
84,272,53430,1,0,0:0:0:0:
104,109,53859,1,0,0:0:0:0:
56,200,54073,1,0,0:0:0:0:
164,196,54288,1,0,0:0:0:0:
248,263,54502,1,0,0:0:0:0:
114,268,54716,1,0,0:0:0:0:
81,86,54930,1,0,0:0:0:0:
67,314,55145,1,0,0:0:0:0:
202,306,55573,1,0,0:0:0:0:
283,234,56002,1,0,0:0:0:0:
428,229,56430,1,0,0:0:0:0:
203,162,56859,1,0,0:0:0:0:
178,126,62109,5,0,0:0:0:0:
293,296,62323,1,0,0:0:0:0:
286,105,62538,1,0,0:0:0:0:
415,237,62859,1,0,0:0:0:0:
232,342,63288,1,0,0:0:0:0:
104,81,63716,1,0,0:0:0:0:
406,108,64145,1,0,0:0:0:0:
239,285,64573,1,0,0:0:0:0:
75,114,65002,1,0,0:0:0:0:
117,350,65430,1,0,0:0:0:0:
229,80,65859,1,0,0:0:0:0:
387,343,66288,1,0,0:0:0:0:
281,113,66716,5,0,0:0:0:0:
222,332,66930,1,0,0:0:0:0:
71,101,67145,1,0,0:0:0:0:
387,239,67359,1,0,0:0:0:0:
43,269,67573,1,0,0:0:0:0:
281,82,67788,1,0,0:0:0:0:
232,333,68002,1,0,0:0:0:0:
157,85,68216,1,0,0:0:0:0:
330,281,68430,1,0,0:0:0:0:
75,165,68645,1,0,0:0:0:0:
397,198,68859,1,0,0:0:0:0:
132,69,70573,5,0,0:0:0:0:
180,317,70788,1,0,0:0:0:0:
321,113,71216,1,0,0:0:0:0:
403,345,71430,1,0,0:0:0:0:
125,194,72073,1,0,0:0:0:0:
381,118,72502,1,0,0:0:0:0:
241,326,72930,5,0,0:0:0:0:
163,55,73145,1,0,0:0:0:0:
276,175,73359,1,0,0:0:0:0:
177,16,73788,1,0,0:0:0:0:
122,266,74002,1,0,0:0:0:0:
266,97,74430,1,0,0:0:0:0:
363,344,74645,1,0,0:0:0:0:
111,184,74859,1,0,0:0:0:0:
399,177,75073,1,0,0:0:0:0:
212,358,75716,5,0,0:0:0:0:
242,89,75930,1,0,0:0:0:0:
98,252,76359,1,0,0:0:0:0:
339,301,76573,1,0,0:0:0:0:
340,92,77430,5,0,0:0:0:0:
129,317,77645,1,0,0:0:0:0:
428,206,77859,1,0,0:0:0:0:
86,147,78073,1,0,0:0:0:0:
331,284,78930,5,0,0:0:0:0:
271,47,79145,1,0,0:0:0:0:
206,334,79359,1,0,0:0:0:0:
353,120,79573,1,0,0:0:0:0:
55,252,79788,1,0,0:0:0:0:
380,219,80002,1,0,0:0:0:0:
71,91,80216,1,0,0:0:0:0:
304,321,80430,1,0,0:0:0:0:
205,70,80645,1,0,0:0:0:0:
352,200,80859,1,0,0:0:0:0:
429,100,81288,1,0,0:0:0:0:
361,108,81716,1,0,0:0:0:0:
203,47,82145,1,0,0:0:0:0:
90,41,82573,5,0,0:0:0:0:
146,321,82788,1,0,0:0:0:0:
296,179,83002,1,0,0:0:0:0:
113,213,83216,1,0,0:0:0:0:
236,329,83430,1,0,0:0:0:0:
198,87,83645,1,0,0:0:0:0:
338,200,83859,1,0,0:0:0:0:
124,142,84502,1,0,0:0:0:0:
345,56,84930,1,0,0:0:0:0:
213,266,85145,1,0,0:0:0:0:
412,171,85788,1,0,0:0:0:0:
243,337,86216,1,0,0:0:0:0:
186,69,86430,1,0,0:0:0:0:
88,295,86859,5,0,0:0:0:0:
396,145,87073,1,0,0:0:0:0:
210,46,87288,1,0,0:0:0:0:
253,345,87502,1,0,0:0:0:0:
101,134,87716,1,0,0:0:0:0:
136,333,88145,1,0,0:0:0:0:
393,189,88359,1,0,0:0:0:0:
269,47,88573,1,0,0:0:0:0:
252,274,88788,1,0,0:0:0:0:
127,76,89430,5,0,0:0:0:0:
73,332,89645,1,0,0:0:0:0:
158,70,89859,1,0,0:0:0:0:
196,312,90073,1,0,0:0:0:0:
287,32,90288,1,0,0:0:0:0:
357,319,90502,1,0,0:0:0:0:
54,195,90716,1,0,0:0:0:0:
329,77,90930,1,0,0:0:0:0:
248,313,91359,1,0,0:0:0:0:
161,65,91573,1,0,0:0:0:0:
63,321,91788,1,0,0:0:0:0:
252,143,92002,1,0,0:0:0:0:
402,270,92645,1,0,0:0:0:0:
85,201,93073,1,0,0:0:0:0:
364,46,93502,1,0,0:0:0:0:
145,328,93930,1,0,0:0:0:0:
272,84,94145,1,0,0:0:0:0:
385,292,94359,1,0,0:0:0:0:
91,244,94788,5,0,0:0:0:0:
408,166,95002,1,0,0:0:0:0:
93,190,95216,1,0,0:0:0:0:
407,209,95430,1,0,0:0:0:0:
118,111,95645,1,0,0:0:0:0:
288,104,96288,1,0,0:0:0:0:
